…
This does seem like a good fit, but again we may be relying too heavily
on a data set that does not have many data points. So, by bootstrapping
we can simulate a large number of similar samples which, by the Law of
Large Numbers, should give us reasonable upper and lower bounds that
more closely reflects the population.

## Bootstrapping in `tidymodels`

``` r
boots <- bootstraps(mtcars, times = 2000, apparent = TRUE)
boots
```

    ## # Bootstrap sampling with apparent sample 
    ## # A tibble: 2,001 x 2
    ##    splits          id           
    ##    <list>          <chr>        
    ##  1 <split [32/12]> Bootstrap0001
    ##  2 <split [32/11]> Bootstrap0002
    ##  3 <split [32/11]> Bootstrap0003
    ##  4 <split [32/12]> Bootstrap0004
    ##  5 <split [32/7]>  Bootstrap0005
    ##  6 <split [32/12]> Bootstrap0006
    ##  7 <split [32/11]> Bootstrap0007
    ##  8 <split [32/13]> Bootstrap0008
    ##  9 <split [32/13]> Bootstrap0009
    ## 10 <split [32/8]>  Bootstrap0010
    ## # … with 1,991 more rows
…
